<?xml version="1.0" encoding="UTF-8" standalone="no"?>
<svg
   xmlns:dc="http://purl.org/dc/elements/1.1/"
   xmlns:cc="http://creativecommons.org/ns#"
   xmlns:rdf="http://www.w3.org/1999/02/22-rdf-syntax-ns#"
   xmlns:svg="http://www.w3.org/2000/svg"
   xmlns="http://www.w3.org/2000/svg"
   width="200"
   height="240"
   viewBox="0 0 52.916665 63.500003"
   version="1.1"
   id="svg42067">
  <defs
     id="defs42061">
    <clipPath
       clipPathUnits="userSpaceOnUse"
       id="clipPath42018">
      <rect
         style="opacity:1;fill:#52272d;fill-opacity:1;fill-rule:nonzero;stroke:none;stroke-width:0.29244402;stroke-linecap:round;stroke-linejoin:round;stroke-miterlimit:4;stroke-dasharray:none;stroke-opacity:1"
         id="rect42020"
         width="143.65021"
         height="331.1098"
         x="0.0098000001"
         y="-5632.5859"
         transform="scale(1,-1)" />
    </clipPath>
    <clipPath
       clipPathUnits="userSpaceOnUse"
       id="clipPath906">
      <path
         d="M 0,5632.596 H 1920 V 0 H 0 Z"
         id="path904" />
    </clipPath>
    <clipPath
       clipPathUnits="userSpaceOnUse"
       id="clipPath42014">
      <rect
         style="opacity:1;fill:#52272d;fill-opacity:1;fill-rule:nonzero;stroke:none;stroke-width:0.29244402;stroke-linecap:round;stroke-linejoin:round;stroke-miterlimit:4;stroke-dasharray:none;stroke-opacity:1"
         id="rect42016"
         width="143.65021"
         height="331.1098"
         x="0.0098000001"
         y="-5632.5859"
         transform="scale(1,-1)" />
    </clipPath>
    <clipPath
       clipPathUnits="userSpaceOnUse"
       id="clipPath1578">
      <path
         d="M 0,5632.596 H 1920 V 0 H 0 Z"
         id="path1576" />
    </clipPath>
    <clipPath
       clipPathUnits="userSpaceOnUse"
       id="clipPath2982">
      <path
         d="m 1300.83,5633.92 h 664.75 v -282.95 h -664.75 z"
         id="path2980" />
    </clipPath>
    <clipPath
       clipPathUnits="userSpaceOnUse"
       id="clipPath42018-6">
      <rect
         style="opacity:1;fill:#52272d;fill-opacity:1;fill-rule:nonzero;stroke:none;stroke-width:0.29244402;stroke-linecap:round;stroke-linejoin:round;stroke-miterlimit:4;stroke-dasharray:none;stroke-opacity:1"
         id="rect42020-7"
         width="143.65021"
         height="331.1098"
         x="0.0098000001"
         y="-5632.5859"
         transform="scale(1,-1)" />
    </clipPath>
    <clipPath
       clipPathUnits="userSpaceOnUse"
       id="clipPath906-5">
      <path
         d="M 0,5632.596 H 1920 V 0 H 0 Z"
         id="path904-3" />
    </clipPath>
  </defs>
  <metadata
     id="metadata42064">
    <rdf:RDF>
      <cc:Work
         rdf:about="">
        <dc:format>image/svg+xml</dc:format>
        <dc:type
           rdf:resource="http://purl.org/dc/dcmitype/StillImage" />
        <dc:title></dc:title>
      </cc:Work>
    </rdf:RDF>
  </metadata>
  <rect
     y="-42.338741"
     x="-13.096207"
     height="0.26726952"
     width="1.3363476"
     id="rect50836"
     style="opacity:0.98999999;fill:#550000;fill-opacity:1;fill-rule:nonzero;stroke:none;stroke-width:0.89376247;stroke-linecap:round;stroke-linejoin:round;stroke-miterlimit:4;stroke-dasharray:none;stroke-opacity:1" />
  <path
     id="rect51391"
     d="M 0,0 44.433465,59.72818 C 46.439711,62.09801 47.928637,63.5 52.916667,63.5 v 0 H 0 Z"
     style="opacity:0.98999999;fill:#c1272c;fill-opacity:1;fill-rule:nonzero;stroke:none;stroke-width:0.5291667;stroke-linecap:round;stroke-linejoin:round;stroke-miterlimit:4;stroke-dasharray:none;stroke-opacity:1" />
  <path
     style="opacity:0.98999999;fill:none;fill-opacity:1;fill-rule:nonzero;stroke:none;stroke-width:1.32291663;stroke-linecap:round;stroke-linejoin:round;stroke-miterlimit:4;stroke-dasharray:none;stroke-opacity:1"
     d="M 0,0 44.433465,59.72818 C 46.439711,62.09801 47.928637,63.5 52.916667,63.5 v 0"
     id="path51528" />
</svg>
